<?xml version="1.0" encoding="utf-8"?>
<!-- Generator: Adobe Illustrator 18.1.0, SVG Export Plug-In . SVG Version: 6.00 Build 0)  -->
<svg version="1.1" id="Layer_1" xmlns="http://www.w3.org/2000/svg" xmlns:xlink="http://www.w3.org/1999/xlink" x="0px" y="0px"
	 viewBox="0 25.5 413.9 232.4" enable-background="new 0 25.5 413.9 232.4" xml:space="preserve">
<rect x="96.9" y="71.4" fill="#FFFFFF" width="222.7" height="144.1"/>
<g>
	<g>
		<polygon fill="#E53231" points="333.5,25.5 333.5,104.1 412,104.1 		"/>
		<path fill="#E53231" d="M333.5,25.5H0v231.7h412V104.1h-78.5V25.5z M250.5,100.8c-2.3,0.3-4.6,0.5-6.9,0.9
			c-7,1.3-12.4,5.1-16.9,10.5c-3.6,4.2-6.2,9-8.6,14c-0.1,0.1,0,0.3-0.1,0.5c6.3,0,12.5,0,18.8,0c0,0.4,0.1,0.7,0.1,1
			c0,7.4,0,14.7,0,22.1c0,1-0.3,1.2-1.2,1.2c-8.9,0-17.7,0-26.6,0c-0.9,0-1.3,0.2-1.6,1c-4.2,10.2-9.5,19.9-16.1,28.8
			c-7.4,10-17.5,16-29.6,18.6c-4.5,1-9.1,1.4-13.7,1.6c-0.3,0-0.7,0-1.1,0c0-0.5-0.1-0.9-0.1-1.3c0-7.2,0-14.4,0-21.6
			c0-1.3,0-1.4,1.4-1.4c8.2-0.2,15.2-3.1,20.9-9c4-4,7-8.8,9.6-13.7c4.3-8.1,7.6-16.6,10.7-25.3c3.7-10.4,8.7-20.2,15.1-29.3
			c6.6-9.3,15.3-15.7,26-19.4c6.1-2.1,12.4-3.1,18.8-3.2c0.3,0,0.6,0,1,0C250.5,84.9,250.5,92.9,250.5,100.8z"/>
	</g>
	<polyline opacity="0.28" fill="#020202" points="412,104.1 333.5,104.1 333.5,25.5 	"/>
	<polygon opacity="0.79" fill="#020202" points="359.4,104.1 412,104.1 412,115.6 	"/>
</g>
</svg>
