<?xml version="1.0" encoding="utf-8"?>
<!-- Generator: Adobe Illustrator 18.1.0, SVG Export Plug-In . SVG Version: 6.00 Build 0)  -->
<svg version="1.1" id="Layer_1" xmlns="http://www.w3.org/2000/svg" xmlns:xlink="http://www.w3.org/1999/xlink" x="0px" y="0px"
	 viewBox="0 25.5 413.9 232.4" enable-background="new 0 25.5 413.9 232.4" xml:space="preserve">
<rect x="96.9" y="71.4" fill="#FFFFFF" width="222.7" height="144.1"/>
<g>
	<path fill="#66BA45" d="M334.1,104.2h78.7l-78.7-78.7l0,0H0v232.2h412.7V104.2H334.1L334.1,104.2z M144.3,75.4
		c13.6,0,24.9,11.2,24.9,24.6c0,14-11.2,25.3-25,25.2c-13.7-0.1-24.7-11.2-24.7-25.1C119.4,86.6,130.7,75.4,144.3,75.4z M302,207.8
		c-60.8,0-121.4,0-182.5,0c0-7.8,0-15.4,0-23c0-0.9,0.5-1.9,1.1-2.6c13.3-13.4,26.7-26.8,40.1-40.2c6.7,7,13.4,13.8,20.1,20.8
		C203.5,140,225.5,118,248,95.4c4,4.2,7.4,7.9,11,11.5c13.7,13.7,27.4,27.4,41,41.1c0.9,0.9,2,2.3,2,3.5
		C302.1,170.2,302,188.9,302,207.8z"/>
	<polyline opacity="0.28" fill="#020202" points="412.7,104.2 334.1,104.2 334.1,25.5 	"/>
	<polygon opacity="0.79" fill="#020202" points="360.1,104.2 412.7,104.2 412.7,115.7 	"/>
</g>
</svg>
